<svg xmlns="http://www.w3.org/2000/svg" width="28" height="28" viewBox="0 0 28 28">
  <g id="Group_5296" data-name="Group 5296" transform="translate(18866 -1764)">
    <rect id="Rectangle_718" data-name="Rectangle 718" width="28" height="28" transform="translate(-18866 1764)" fill="none"/>
    <g id="Group_5270" data-name="Group 5270" transform="translate(-18866.5 1765.189)">
      <path id="Path_1134" data-name="Path 1134" d="M40.815,30.775q.322.3.61.61l2.311.33A8.736,8.736,0,0,1,44.6,33.8l-1.405,1.871s.025.576,0,.864L44.6,38.4a8.652,8.652,0,0,1-.864,2.083l-2.311.33s-.4.415-.61.61l-.33,2.311A8.737,8.737,0,0,1,38.4,44.6l-1.871-1.405a4.9,4.9,0,0,1-.864,0L33.8,44.6a8.653,8.653,0,0,1-2.083-.864l-.33-2.311q-.313-.3-.61-.61l-2.311-.33A8.737,8.737,0,0,1,27.6,38.4l1.405-1.871s-.025-.576,0-.864L27.6,33.8a8.652,8.652,0,0,1,.864-2.083l2.311-.33q.3-.313.61-.61l.33-2.311A8.737,8.737,0,0,1,33.8,27.6l1.871,1.405a4.9,4.9,0,0,1,.864,0L38.4,27.6a8.652,8.652,0,0,1,2.083.864Z" transform="translate(-21.1 -22.79)" fill="none" stroke="#fff" stroke-linecap="round" stroke-linejoin="round" stroke-width="1"/>
      <circle id="Ellipse_231" data-name="Ellipse 231" cx="3.591" cy="3.591" r="3.591" transform="translate(11.408 9.719)" fill="none" stroke="#fff" stroke-linecap="round" stroke-linejoin="round" stroke-width="1"/>
    </g>
  </g>
</svg>
